{
    "heroID": "5A631EA5-1E2B40A-1C351B77",
    "skillDatas": [
        {
            "id": "5A631EC1-210BBA4-20282481",
            "skillType": 0,
            "areaType": 0,
            "outerRadius": 12.0,
            "innerRadius": 0.0,
            "cubeWidth": 0.0,
            "angle": 0,
            "detectRange": 12.0,
            "maximumTargets": 1
        },
        {
            "id": "5A631EC2-210BBA4-33A5679F",
            "skillType": 1,
            "areaType": 0,
            "outerRadius": 5.0,
            "innerRadius": 0.0,
            "cubeWidth": 0.0,
            "angle": 0,
            "detectRange": 5.0,
            "maximumTargets": 0
        },
        {
            "id": "5A631EC2-210BBA4-38F5F337",
            "skillType": 2,
            "areaType": 1,
            "outerRadius": 10.0,
            "innerRadius": 0.0,
            "cubeWidth": 4.0,
            "angle": 0,
            "detectRange": 2.0,
            "maximumTargets": 10
        },
        {
            "id": "5A631EC3-210BBA4-116229F7",
            "skillType": 3,
            "areaType": 1,
            "outerRadius": 50.0,
            "innerRadius": 0.0,
            "cubeWidth": 6.0,
            "angle": 0,
            "detectRange": 2.0,
            "maximumTargets": 10
        }
    ]
}