%YAML 1.1
%TAG !u! tag:unity3d.com,2011:
--- !u!1001 &100100000
Prefab:
  m_ObjectHideFlags: 1
  serializedVersion: 2
  m_Modification:
    m_TransformParent: {fileID: 0}
    m_Modifications: []
    m_RemovedComponents: []
  m_ParentPrefab: {fileID: 0}
  m_RootGameObject: {fileID: 1449229192530266}
  m_IsPrefabParent: 1
--- !u!1 &1449229192530266
GameObject:
  m_ObjectHideFlags: 0
  m_PrefabParentObject: {fileID: 0}
  m_PrefabInternal: {fileID: 100100000}
  serializedVersion: 5
  m_Component:
  - component: {fileID: 4739970936244174}
  - component: {fileID: 114667889086417362}
  m_Layer: 0
  m_Name: Enemy02_Spawn
  m_TagString: Untagged
  m_Icon: {fileID: 0}
  m_NavMeshLayer: 0
  m_StaticEditorFlags: 0
  m_IsActive: 1
--- !u!4 &4739970936244174
Transform:
  m_ObjectHideFlags: 1
  m_PrefabParentObject: {fileID: 0}
  m_PrefabInternal: {fileID: 100100000}
  m_GameObject: {fileID: 1449229192530266}
  m_LocalRotation: {x: -0, y: -0.14943975, z: -0, w: 0.98877084}
  m_LocalPosition: {x: 115.19, y: 3, z: 26.54}
  m_LocalScale: {x: 1, y: 1, z: 1}
  m_Children: []
  m_Father: {fileID: 0}
  m_RootOrder: 0
  m_LocalEulerAnglesHint: {x: 0, y: -17.189001, z: 0}
--- !u!114 &114667889086417362
MonoBehaviour:
  m_ObjectHideFlags: 1
  m_PrefabParentObject: {fileID: 0}
  m_PrefabInternal: {fileID: 100100000}
  m_GameObject: {fileID: 1449229192530266}
  m_Enabled: 1
  m_EditorHideFlags: 0
  m_Script: {fileID: 11500000, guid: dc2f39dbc576e714686e8ca8ad866cd5, type: 3}
  m_Name: 
  m_EditorClassIdentifier: 
  spawnTime: 3
  enemysMaxCount: 10
  targetWithTag: Tower02
  enemy: {fileID: 1438323885676586, guid: 2e22055def5f95847802de54d0eb5440, type: 2}
